[system/locale]
region='fr_FR.UTF-8'

[org/gnome/gnome-session]
auto-save-session=false

[org/gnome/nautilus/preferences]
search-filter-time-type='last_modified'

[org/gnome/nautilus/desktop]
home-icon-visible=false
network-icon-visible=true

[org/gnome/settings-daemon/plugins/power]
sleep-inactive-battery-type='suspend'
sleep-inactive-ac-timeout=3600
sleep-inactive-ac-type='nothing'
sleep-inactive-battery-timeout=1800

[org/gnome/settings-daemon/plugins/xsettings]
overrides={'Gtk/ShellShowsAppMenu': <1>}

[org/gnome/settings-daemon/peripherals/keyboard]
numlock-state='off'

[org/gnome/shell]
command-history=['r', 'gnome-session-properties']
enabled-extensions=['drive-menu@gnome-shell-extensions.gcampax.github.com', 'alternate-tab@gnome-shell-extensions.gcampax.github.com', 'sound-output-device-chooser@kgshank.net', 'user-theme@gnome-shell-extensions.gcampax.github.com', 'dash-to-dock@micxgx.gmail.com', 'drop-down-terminal@gs-extensions.zzrough.org', 'workspace-indicator@gnome-shell-extensions.gcampax.github.com', 'ShellTile@emasab.it', 'disable-workspace-switcher-popup@github.com']
favorite-apps=['org.gnome.Terminal.desktop', 'firefox.desktop', 'chromium.desktop', 'spotify.desktop']

[org/gnome/shell/extensions/dash-to-dock]
animate-show-apps=false
show-apps-at-top=false
dock-fixed=false
force-straight-corner=false
intellihide=false
intellihide-mode='FOCUS_APPLICATION_WINDOWS'
animation-time=0.10000000000000002
hot-keys=false
custom-background-color=false
hide-delay=0.10000000000000002
pressure-threshold=50.0
dock-position='BOTTOM'
custom-theme-shrink=true
icon-size-fixed=false
dash-max-icon-size=32
opaque-background=true

[org/gnome/shell/overrides]
edge-tiling=true

[org/gnome/terminal/legacy/profiles:]
list=['b1dcc9dd-5262-4d8d-a863-c897e6d979b9', '361ea6bb-1605-4539-a668-eee93ae8ca4c']

[org/gnome/terminal/legacy/profiles:/:361ea6bb-1605-4539-a668-eee93ae8ca4c]
backspace-binding='auto'
use-theme-colors=true
cursor-shape='ibeam'
use-system-font=true
visible-name='black'

[org/gnome/evolution-data-server]
network-monitor-gio-name=''
migrated=true

[org/gnome/desktop/interface]
clock-show-date=true
gtk-im-module='gtk-im-context-simple'
clock-show-seconds=true

[org/gnome/desktop/notifications]
application-children=['gnome-tweak-tool', 'spotify']

[org/gnome/desktop/notifications/application/spotify]
application-id='spotify.desktop'

[org/gnome/desktop/notifications/application/gnome-tweak-tool]
application-id='gnome-tweak-tool.desktop'

[org/gnome/desktop/screensaver]
picture-uri='file:///usr/share/backgrounds/gnome/Sandstone.jpg'

[org/gnome/desktop/peripherals/touchpad]
natural-scroll=true
speed=0.40000000000000002
tap-to-click=true

[org/gnome/desktop/calendar]
show-weekdate=false

[org/gnome/desktop/search-providers]
sort-order=['org.gnome.Contacts.desktop', 'org.gnome.Documents.desktop', 'org.gnome.Nautilus.desktop']

[org/gnome/desktop/session]
idle-delay=uint32 600

[org/gnome/desktop/sound]
theme-name='__custom'
event-sounds=true

[org/gnome/desktop/datetime]
automatic-timezone=true

[org/gnome/desktop/background]
picture-uri='file:///home/nils/.wp.png'
show-desktop-icons=true
picture-options='wallpaper'

[org/gnome/desktop/input-sources]
show-all-sources=true
sources=[('xkb', 'us+dvorak-alt-intl'), ('xkb', 'us')]
xkb-options=['caps:swapescape']

[org/gtk/settings/file-chooser]
sort-column='name'
sidebar-width=155
window-position=(0, 27)
show-size-column=true
show-hidden=true
window-size=(1600, 826)
sort-directories-first=false
date-format='regular'
sort-order='ascending'
location-mode='path-bar'

[org/zzrough/gs-extensions/drop-down-terminal]
transparency-level=uint32 80
real-shortcut=['<Super>Return']
scrollbar-visible=true
terminal-position='Top'
shortcut-type='other'
enable-audible-bell=false
other-shortcut=['<Super>Return']
first-start=false

[ca/desrt/dconf-editor]
saved-view='/org/gnome/gnome-session/auto-save-session'
window-height=600
window-width=800
window-is-maximized=false
